<svg width="25" height="39" viewBox="0 0 25 39" fill="none" xmlns="http://www.w3.org/2000/svg">
<g clip-path="url(#clip0)">
<path d="M14.8901 15.2758L15.7425 15.8824L14.1576 11.5303L12.6431 14.6922C13.4113 14.6088 14.2108 14.7922 14.8901 15.2758Z" fill="#F26488"/>
<path d="M5.922 20.9805C5.922 22.4426 7.10137 23.6321 8.55101 23.6321C10.0006 23.6321 11.1798 22.4426 11.1798 20.9805V20.7697L11.0949 20.7094C10.3751 20.197 9.89669 19.4326 9.74723 18.5568C9.59807 17.6823 9.79499 16.8013 10.3018 16.0761C10.5457 15.7271 10.8461 15.4429 11.1798 15.2211V14.407C11.1798 12.9448 10.0006 11.7554 8.55101 11.7554C7.10137 11.7554 5.922 12.9448 5.922 14.4071V20.9805Z" fill="#F26488"/>
<path d="M10.844 16.4646C10.4397 17.043 10.2827 17.7454 10.4017 18.4425C10.5209 19.141 10.9027 19.7506 11.4767 20.1595L11.6968 20.3159C11.6973 20.3163 11.698 20.3166 11.6985 20.317L16.7643 23.9158C17.2514 24.2619 17.5387 24.8273 17.5329 25.4283C17.527 26.0298 17.2287 26.5902 16.7346 26.927C14.3659 28.5427 12.8944 31.2258 12.8944 33.9295C12.8944 34.1151 12.7456 34.2657 12.5623 34.2657C12.3789 34.2657 12.2302 34.1151 12.2302 33.9295C12.2302 30.9607 13.7753 28.1344 16.3636 26.3693C16.681 26.1528 16.865 25.8076 16.8687 25.4218C16.8724 25.0365 16.6953 24.6882 16.3827 24.4661L11.8313 21.2327C11.7029 22.948 10.2823 24.3048 8.55092 24.3048C7.24858 24.3048 6.12376 23.5359 5.5898 22.4259C5.05584 23.5359 3.93112 24.3048 2.62889 24.3048C1.5544 24.3048 0.601326 23.7803 -0.00012207 22.9742V25.1002C-1.93465e-05 32.7646 6.17995 39.0001 13.776 39.0001C17.6896 39.0001 24.9999 36.5431 24.9999 30.6236V25.3451C24.9999 23.8672 24.6877 23.0691 23.8862 22.4991L14.5083 15.8263C13.3229 14.9823 11.6797 15.2697 10.844 16.4646Z" fill="#F26488"/>
<path d="M2.62901 23.6323C4.07844 23.6323 5.25782 22.4428 5.25782 20.9807V16.2001C5.25782 14.738 4.07844 13.5483 2.62901 13.5483C1.17937 13.5483 0 14.738 0 16.2001V20.9807C0 22.4428 1.17937 23.6323 2.62901 23.6323Z" fill="#F26488"/>
<path d="M23.5915 4.02409C23.8991 3.38896 23.9436 2.67053 23.7168 2.00171C23.4893 1.33059 23.0161 0.789274 22.3843 0.477794C21.0861 -0.163366 19.5163 0.377954 18.8751 1.68128L18.1567 3.18096L20.6881 9.87388L23.5915 4.02409Z" fill="#F26488"/>
<path d="M16.6717 16.4904C16.6795 16.5119 16.685 16.5336 16.6884 16.5554L22.9952 21.043L22.9137 19.1251C22.8666 18.0145 22.6435 16.9241 22.2506 15.8849L16.9115 1.7679C16.4218 0.383453 14.9144 -0.337163 13.5491 0.154445C12.8864 0.393021 12.3563 0.877661 12.0558 1.51924C11.7566 2.15821 11.7214 2.87675 11.9566 3.54245L16.6717 16.4904Z" fill="#F26488"/>
</g>
<defs>
<clipPath id="clip0">
<rect width="25" height="39" fill="white"/>
</clipPath>
</defs>
</svg>
